location,date,vaccine,source_url,total_vaccinations,people_vaccinated,people_fully_vaccinated
France,2021-01-05,Pfizer/BioNTech,https://twitter.com/olivierveran/status/1346529841701662722,5000,5000,0
France,2021-01-06,Pfizer/BioNTech,https://twitter.com/nicolasberrod/status/1347272372555022337,17500,17500,0
France,2021-01-07,Pfizer/BioNTech,https://twitter.com/Le_Figaro/status/1347239178484985858,45000,45000,0
France,2021-01-08,Pfizer/BioNTech,https://twitter.com/olivierveran/status/1347616253490450433,80000,80000,0
France,2021-01-11,Pfizer/BioNTech,https://www.data.gouv.fr/fr/datasets/donnees-relatives-aux-personnes-vaccinees-contre-la-covid-19/,138351,138351,0
France,2021-01-12,Pfizer/BioNTech,https://www.data.gouv.fr/fr/datasets/donnees-relatives-aux-personnes-vaccinees-contre-la-covid-19/,189834,189834,0
France,2021-01-13,Pfizer/BioNTech,https://www.data.gouv.fr/fr/datasets/donnees-relatives-aux-personnes-vaccinees-contre-la-covid-19/,247167,247167,0
