iso_code,continent,location,last_updated_date,total_cases,new_cases,new_cases_smoothed,total_deaths,new_deaths,new_deaths_smoothed,total_cases_per_million,new_cases_per_million,new_cases_smoothed_per_million,total_deaths_per_million,new_deaths_per_million,new_deaths_smoothed_per_million,reproduction_rate,icu_patients,icu_patients_per_million,hosp_patients,hosp_patients_per_million,weekly_icu_admissions,weekly_icu_admissions_per_million,weekly_hosp_admissions,weekly_hosp_admissions_per_million,new_tests,total_tests,total_tests_per_thousand,new_tests_per_thousand,new_tests_smoothed,new_tests_smoothed_per_thousand,positive_rate,tests_per_case,tests_units,total_vaccinations,new_vaccinations,new_vaccinations_smoothed,total_vaccinations_per_hundred,new_vaccinations_smoothed_per_million,stringency_index,population,population_density,median_age,aged_65_older,aged_70_older,gdp_per_capita,extreme_poverty,cardiovasc_death_rate,diabetes_prevalence,female_smokers,male_smokers,handwashing_facilities,hospital_beds_per_thousand,life_expectancy,human_development_index
AFG,Asia,Afghanistan,2021-01-13,53584.0,0.0,68.429,2301.0,0.0,8.143,1376.478,0.0,1.758,59.109,0.0,0.209,,,,,,,,,,,,,,,,,,,,,,,,12.04,38928341.0,54.422,18.6,2.581,1.337,1803.987,,597.029,9.59,,,37.746,0.5,64.83,0.498
ALB,Europe,Albania,2021-01-13,65334.0,707.0,618.0,1256.0,4.0,5.571,22702.759,245.674,214.747,436.445,1.39,1.936,,,,,,,,,,,,,,,,,,,,,,,,63.89,2877800.0,104.871,38.0,13.188,8.643,11803.431,1.1,304.195,10.08,7.1,51.2,,2.89,78.57,0.785
DZA,Africa,Algeria,2021-01-13,102860.0,219.0,248.571,2819.0,3.0,4.714,2345.668,4.994,5.669,64.286,0.068,0.108,,,,,,,,,,,,,,,,,,,,,,,,72.22,43851043.0,17.348,29.1,6.211,3.857,13913.839,0.5,278.364,6.73,0.7,30.4,83.741,1.9,76.88,0.754
AND,Europe,Andorra,2021-01-13,8818.0,136.0,67.143,87.0,1.0,0.429,114126.707,1760.176,868.994,1125.995,12.942,5.547,,,,,,,,,,,,,,,,,,,,,,,,52.78,77265.0,163.755,,,,,,109.135,7.97,29.0,37.8,,,83.73,0.858
AGO,Africa,Angola,2021-01-13,18425.0,82.0,80.143,424.0,2.0,1.571,560.605,2.495,2.438,12.901,0.061,0.048,,,,,,,,,,,,,,,,,,,,,,,,65.74,32866268.0,23.89,16.8,2.405,1.362,5819.495,,276.045,3.94,,,26.664,,61.15,0.581
ATG,North America,Antigua and Barbuda,2021-01-13,176.0,0.0,1.857,5.0,0.0,0.0,1797.239,0.0,18.964,51.058,0.0,0.0,,,,,,,,,,,,,,,,,,,,,,,,,97928.0,231.845,32.1,6.933,4.631,21490.943,,191.511,13.17,,,,3.8,77.02,0.78
ARG,South America,Argentina,2021-01-13,1757429.0,12725.0,11608.286,44983.0,135.0,143.857,38884.806,281.553,256.844,995.292,2.987,3.183,,,,,,,,,,38450.0,4426101.0,97.932,0.851,30098.0,0.666,0.306,3.3,people tested,166833.0,,13323.0,0.37,295.0,79.17,45195777.0,16.177,31.9,11.198,7.441,18933.907,0.6,191.032,5.5,16.2,27.7,,5.0,76.67,0.825
ARM,Asia,Armenia,2021-01-13,163128.0,485.0,325.0,2951.0,10.0,8.714,55050.664,163.673,109.677,995.871,3.375,2.941,,,,,,,,,,,,,,,,,,,,,,,,,2963234.0,102.931,35.7,11.232,7.571,8787.58,1.8,341.01,7.11,1.5,52.1,94.043,4.2,75.09,0.755
AUS,Oceania,Australia,2021-01-13,28660.0,10.0,16.286,909.0,0.0,0.0,1123.927,0.392,0.639,35.647,0.0,0.0,,,,,,,,,,60177.0,12139602.0,476.065,2.36,78419.0,3.075,0.0,4815.1,tests performed,,,,,,52.31,25499881.0,3.202,37.9,15.504,10.129,44648.71,0.5,107.791,5.07,13.0,16.5,,3.84,83.44,0.939
AUT,Europe,Austria,2021-01-13,385750.0,1917.0,1937.143,6868.0,49.0,49.0,42830.654,212.849,215.085,762.569,5.441,5.441,,363.0,40.305,1864.0,206.964,,,,,14089.0,3919571.0,435.198,1.564,18069.0,2.006,0.117,8.5,tests performed,63280.0,10355.0,7365.0,0.7,818.0,78.7,9006400.0,106.749,44.4,19.202,13.748,45436.686,0.7,145.183,6.35,28.4,30.9,,7.37,81.54,0.908
AZE,Asia,Azerbaijan,2021-01-13,225820.0,474.0,517.143,2957.0,16.0,19.857,22272.029,46.749,51.004,291.641,1.578,1.958,,,,,,,,,,,,,,,,,,,,,,,,89.81,10139175.0,119.309,32.4,6.018,3.871,15847.419,,559.812,7.11,0.3,42.5,83.241,4.7,73.0,0.757
BHS,North America,Bahamas,2021-01-13,8011.0,7.0,9.429,175.0,0.0,0.0,20371.369,17.8,23.976,445.012,0.0,0.0,,,,,,,,,,,,,,,,,,,,,,,,68.98,393248.0,39.497,34.3,8.996,5.2,27717.847,,235.954,13.17,3.1,20.4,,2.9,73.92,0.807
BHR,Asia,Bahrain,2021-01-13,96470.0,275.0,312.286,356.0,0.0,0.429,56694.266,161.614,183.527,209.217,0.0,0.252,,,,,,,,,,10911.0,2497331.0,1467.652,6.412,11503.0,6.76,0.027,36.7,units unclear,101363.0,3587.0,4699.0,5.96,2762.0,50.93,1701583.0,1935.907,32.4,2.372,1.387,43290.705,,151.689,16.52,5.8,37.6,,2.0,77.29,0.846
BGD,Asia,Bangladesh,2021-01-13,524910.0,890.0,858.857,7833.0,14.0,20.857,3187.273,5.404,5.215,47.562,0.085,0.127,,,,,,,,,,14363.0,3383119.0,20.542,0.087,14371.0,0.087,0.061,16.5,tests performed,,,,,,,164689383.0,1265.036,27.5,5.098,3.262,3523.984,14.8,298.003,8.38,1.0,44.7,34.808,0.8,72.59,0.608
BRB,North America,Barbados,2021-01-13,1007.0,39.0,37.714,7.0,0.0,0.0,3504.181,135.713,131.239,24.359,0.0,0.0,,,,,,,,,,,,,,,,,,,,,,,,59.26,287371.0,664.463,39.8,14.952,9.473,16978.068,,170.05,13.57,1.9,14.5,88.469,5.8,79.19,0.8
BLR,Europe,Belarus,2021-01-13,217696.0,1972.0,1819.714,1544.0,9.0,9.143,23038.269,208.692,192.576,163.398,0.952,0.968,,,,,,,,,,,,,,,,,,,,,,,,27.78,9449321.0,46.858,40.3,14.799,9.788,17167.967,,443.129,5.18,10.5,46.1,,11.0,74.79,0.808
BEL,Europe,Belgium,2021-01-13,670249.0,2927.0,2073.857,20250.0,56.0,52.429,57831.856,252.554,178.941,1747.254,4.832,4.524,,468.0,40.381,2185.0,188.531,3475.21,299.855,1030.928,88.953,42414.0,7360343.0,635.081,3.66,43966.0,3.794,0.053,18.9,tests performed,55740.0,10619.0,7454.0,0.48,643.0,62.04,11589616.0,375.564,41.8,18.571,12.849,42658.576,0.2,114.898,4.29,25.1,31.4,,5.64,81.63,0.916
BLZ,North America,Belize,2021-01-13,11419.0,53.0,44.429,278.0,1.0,2.571,28718.302,133.293,111.736,699.158,2.515,6.467,,,,,,,,,,,,,,,,,,,,,,,,72.22,397621.0,16.426,25.0,3.853,2.279,7824.362,,176.957,17.11,,,90.083,1.3,74.62,0.708
BEN,Africa,Benin,2021-01-13,3413.0,50.0,15.571,46.0,0.0,0.286,281.526,4.124,1.284,3.794,0.0,0.024,,,,,,,,,,,,,,,,,,,,,,,,35.19,12123198.0,99.11,18.8,3.244,1.942,2064.236,49.6,235.848,0.99,0.6,12.3,11.035,0.5,61.77,0.515
BTN,Asia,Bhutan,2021-01-13,833.0,2.0,11.143,1.0,0.0,0.143,1079.558,2.592,14.441,1.296,0.0,0.185,,,,,,,,,,,,,,,,,,,,,,,,81.94,771612.0,21.188,28.6,4.885,2.977,8708.597,1.5,217.066,9.75,,,79.807,1.7,71.78,0.612
BOL,South America,Bolivia,2021-01-13,178818.0,2057.0,1691.0,9493.0,39.0,29.429,15318.903,176.218,144.864,813.242,3.341,2.521,,,,,,,,,,3273.0,450795.0,38.619,0.28,3924.0,0.336,0.423,2.4,tests performed,,,,,,30.56,11673029.0,10.202,25.4,6.704,4.393,6885.829,7.1,204.299,6.89,,,25.383,1.1,71.51,0.693
BIH,Europe,Bosnia and Herzegovina,2021-01-13,116668.0,468.0,468.0,4399.0,26.0,26.857,35560.676,142.647,142.647,1340.825,7.925,8.186,,,,,,,,,,2440.0,514380.0,156.784,0.744,2494.0,0.76,0.154,6.5,tests performed,,,,,,42.59,3280815.0,68.496,42.5,16.569,10.711,11713.895,0.2,329.635,10.08,30.2,47.7,97.164,3.5,77.4,0.768
BWA,Africa,Botswana,2021-01-13,16768.0,0.0,189.714,59.0,0.0,2.0,7130.389,0.0,80.674,25.089,0.0,0.85,,,,,,,,,,,,,,,,,,,,,,,,53.7,2351625.0,4.044,25.8,3.941,2.242,15807.374,,237.372,4.81,5.7,34.4,,1.8,69.59,0.717
BRA,South America,Brazil,2021-01-13,8256536.0,60899.0,54672.286,205964.0,1274.0,998.571,38843.428,286.503,257.209,968.971,5.994,4.698,,,,,,,,,,,,,,,,,,,,,,,,57.87,212559409.0,25.04,33.5,8.552,5.06,14103.452,3.4,177.961,8.11,10.1,17.9,,2.2,75.88,0.759
BRN,Asia,Brunei,2021-01-13,174.0,0.0,0.286,3.0,0.0,0.0,397.73,0.0,0.653,6.857,0.0,0.0,,,,,,,,,,,,,,,,,,,,,,,,35.19,437483.0,81.347,32.4,4.591,2.382,71809.251,,201.285,12.79,2.0,30.9,,2.7,75.86,0.853
BGR,Europe,Bulgaria,2021-01-13,210416.0,535.0,574.857,8349.0,70.0,55.429,30282.459,76.996,82.732,1201.564,10.074,7.977,,453.0,65.194,4689.0,674.827,,,,,9642.0,1239980.0,178.454,1.388,7834.0,1.127,0.079,12.6,tests performed,17038.0,1258.0,1304.0,0.25,188.0,57.41,6948445.0,65.18,44.7,20.801,13.272,18563.307,1.5,424.688,5.81,30.1,44.4,,7.454,75.05,0.813
BFA,Africa,Burkina Faso,2021-01-13,8546.0,83.0,140.429,93.0,1.0,0.571,408.835,3.971,6.718,4.449,0.048,0.027,,,,,,,,,,,,,,,,,,,,,,,,13.89,20903278.0,70.151,17.6,2.409,1.358,1703.102,43.7,269.048,2.42,1.6,23.9,11.877,0.4,61.58,0.423
BDI,Africa,Burundi,2021-01-13,1062.0,43.0,25.429,2.0,0.0,0.0,89.313,3.616,2.139,0.168,0.0,0.0,,,,,,,,,,,,,,,,,,,,,,,,18.06,11890781.0,423.062,17.5,2.562,1.504,702.225,71.7,293.068,6.05,,,6.144,0.8,61.58,0.417
KHM,Asia,Cambodia,2021-01-13,411.0,13.0,3.714,,,0.0,24.583,0.778,0.222,,,0.0,,,,,,,,,,,,,,,,,,,,,,,,58.33,16718971.0,90.672,25.6,4.412,2.385,3645.07,,270.892,4.0,2.0,33.7,66.229,0.8,69.82,0.582
CMR,Africa,Cameroon,2021-01-13,27336.0,0.0,69.714,451.0,0.0,0.429,1029.765,0.0,2.626,16.989,0.0,0.016,,,,,,,,,,,,,,,,,,,,,,,,20.37,26545864.0,50.885,18.8,3.165,1.919,3364.926,23.8,244.661,7.2,,,2.735,1.3,59.29,0.556
CAN,North America,Canada,2021-01-13,686211.0,7139.0,7820.714,17404.0,149.0,143.0,18181.552,189.152,207.214,461.129,3.948,3.789,,844.0,22.362,4592.0,121.668,,,,,67878.0,14714036.0,389.857,1.798,76202.0,2.019,0.104,9.6,people tested,419209.0,30716.0,33646.0,1.11,891.0,64.35,37742157.0,4.037,41.4,16.984,10.797,44017.591,0.5,105.599,7.37,12.0,16.6,,2.5,82.43,0.926
CPV,Africa,Cape Verde,2021-01-13,12592.0,86.0,77.143,115.0,0.0,0.286,22647.971,154.68,138.749,206.839,0.0,0.514,,,,,,,,,,318.0,,,0.572,,,,,tests performed,,,,,,64.81,555988.0,135.58,25.7,4.46,3.437,6222.554,,182.219,2.42,2.1,16.5,,2.1,72.98,0.654
CAF,Africa,Central African Republic,2021-01-13,4973.0,0.0,1.429,63.0,0.0,0.0,1029.657,0.0,0.296,13.044,0.0,0.0,,,,,,,,,,,,,,,,,,,,,,,,16.67,4829764.0,7.479,18.3,3.655,2.251,661.24,,435.727,6.1,,,16.603,1.0,53.28,0.367
TCD,Africa,Chad,2021-01-13,2709.0,41.0,54.429,109.0,1.0,0.571,164.923,2.496,3.314,6.636,0.061,0.035,,,,,,,,,,,,,,,,,,,,,,,,68.98,16425859.0,11.833,16.7,2.486,1.446,1768.153,38.4,280.995,6.1,,,5.818,,54.24,0.404
CHL,South America,Chile,2021-01-13,652525.0,3390.0,3863.143,17204.0,22.0,55.429,34134.645,177.336,202.087,899.969,1.151,2.9,,,,,,,,,,42722.0,6981084.0,365.192,2.235,50257.0,2.629,0.078,12.8,tests performed,10699.0,205.0,272.0,0.06,14.0,79.17,19116209.0,24.282,35.4,11.087,6.938,22767.037,1.3,127.993,8.46,34.2,41.5,,2.11,80.18,0.843
CHN,Asia,China,2021-01-13,97275.0,180.0,125.286,4796.0,2.0,1.143,67.584,0.125,0.087,3.332,0.001,0.001,,,,,,,,,,,,,,,,,,,10000000.0,,357143.0,0.69,248.0,78.24,1439323774.0,147.674,38.7,10.641,5.929,15308.712,0.7,261.899,9.74,1.9,48.4,,4.34,76.91,0.752
COL,South America,Colombia,2021-01-13,1831980.0,15898.0,16029.857,47124.0,342.0,343.0,36003.855,312.443,315.034,926.127,6.721,6.741,,,,,,,,,,26789.0,6446939.0,126.702,0.526,34954.0,0.687,0.31,3.2,tests performed,,,,,,81.02,50882884.0,44.223,32.2,7.646,4.312,13254.949,4.5,124.24,7.44,4.7,13.5,65.386,1.71,77.29,0.747
COM,Africa,Comoros,2021-01-13,1169.0,3.0,24.857,21.0,0.0,1.143,1344.304,3.45,28.585,24.149,0.0,1.314,,,,,,,,,,,,,,,,,,,,,,,,,869595.0,437.352,20.4,2.963,1.726,1413.89,18.1,261.516,11.88,4.4,23.6,15.574,2.2,64.32,0.503
COG,Africa,Congo,2021-01-13,7160.0,0.0,4.714,112.0,0.0,0.571,1297.55,0.0,0.854,20.297,0.0,0.104,,,,,,,,,,,,,,,,,,,,,,,,43.52,5518092.0,15.405,19.0,3.402,2.063,4881.406,37.0,344.094,7.2,1.7,52.3,47.964,,64.57,0.606
CRI,North America,Costa Rica,2021-01-13,182156.0,1063.0,1016.857,2384.0,17.0,16.714,35758.132,208.672,199.614,467.991,3.337,3.281,,,,,,,,,,,,,,,,,,,9751.0,,1111.0,0.19,218.0,63.89,5094114.0,96.079,33.6,9.468,5.694,15524.995,1.3,137.973,8.78,6.4,17.4,83.841,1.13,80.28,0.794
CIV,Africa,Cote d'Ivoire,2021-01-13,24369.0,183.0,200.857,140.0,0.0,0.286,923.828,6.938,7.614,5.307,0.0,0.011,,,,,,,,,,3478.0,280629.0,10.639,0.132,2603.0,0.099,0.06,16.5,samples tested,,,,,,17.59,26378275.0,76.399,18.7,2.933,1.582,3601.006,28.2,303.74,2.42,,,19.351,,57.78,0.492
HRV,Europe,Croatia,2021-01-13,222117.0,1135.0,833.0,4472.0,26.0,35.571,54105.359,276.474,202.91,1089.332,6.333,8.665,,,,2453.0,597.525,,,1530.822,372.892,7713.0,1095705.0,266.902,1.879,6301.0,1.535,0.142,7.0,people tested,34553.0,5015.0,2479.0,0.84,604.0,47.22,4105268.0,73.726,44.0,19.724,13.053,22669.797,0.7,253.782,5.59,34.3,39.9,,5.54,78.49,0.831
CUB,North America,Cuba,2021-01-13,16044.0,550.0,411.286,158.0,3.0,1.429,1416.487,48.558,36.311,13.949,0.265,0.126,,,,,,,,,,14350.0,1620169.0,143.041,1.267,12590.0,1.112,0.026,38.9,tests performed,,,,,,62.04,11326616.0,110.408,43.1,14.738,9.719,,,190.968,8.27,17.1,53.3,85.198,5.2,78.8,0.777
CYP,Europe,Cyprus,2021-01-13,28124.0,227.0,334.714,163.0,6.0,3.571,32108.725,259.162,382.138,186.095,6.85,4.077,,28.0,31.967,182.0,207.787,22.0,25.117,117.0,133.577,13231.0,1173730.0,1340.029,15.106,11569.0,13.208,0.033,30.1,tests performed,6035.0,,534.0,0.69,610.0,74.07,875899.0,127.657,37.3,13.416,8.563,32415.132,,141.171,9.24,19.6,52.7,,3.4,80.98,0.869
CZE,Europe,Czechia,2021-01-13,855600.0,10801.0,11233.286,13656.0,171.0,174.286,79895.549,1008.593,1048.959,1275.191,15.968,16.275,,933.0,87.123,6288.0,587.171,1476.158,137.843,8835.83,825.086,59222.0,,,5.53,55711.0,5.202,0.201,5.0,tests performed,70680.0,,7252.0,0.66,677.0,69.44,10708982.0,137.176,43.3,19.027,11.58,32605.906,,227.485,6.82,30.5,38.3,,6.63,79.38,0.888
COD,Africa,Democratic Republic of Congo,2021-01-13,20003.0,296.0,216.571,626.0,1.0,3.857,223.344,3.305,2.418,6.99,0.011,0.043,,,,,,,,,,1016.0,,,0.011,727.0,0.008,0.264,3.8,samples tested,,,,,,23.15,89561404.0,35.879,17.0,3.02,1.745,808.133,77.1,318.949,6.1,,,4.472,,60.68,0.457
DNK,Europe,Denmark,2021-01-13,185835.0,1359.0,1453.143,1661.0,37.0,30.0,32083.648,234.626,250.879,286.765,6.388,5.179,,,,,,,,1002.598,173.094,25827.0,11352499.0,1959.962,4.459,66691.0,11.514,0.024,42.3,tests performed,118073.0,453.0,7098.0,2.04,1225.0,67.59,5792203.0,136.52,42.3,19.677,12.325,46682.515,0.2,114.767,6.41,19.3,18.8,,2.5,80.9,0.929
DJI,Africa,Djibouti,2021-01-13,5891.0,12.0,5.143,61.0,0.0,0.0,5962.539,12.146,5.205,61.741,0.0,0.0,,,,,,,,,,,,,,,,,,,,,,,,37.96,988002.0,41.285,25.4,4.213,2.38,2705.406,22.5,258.037,6.05,1.7,24.5,,1.4,67.11,0.476
DMA,North America,Dominica,2021-01-13,109.0,0.0,0.571,,,0.0,1514.078,0.0,7.938,,,0.0,,,,,,,,,,,,,,,,,,,,,,,,,71991.0,98.567,,,,9673.367,,227.376,11.62,,,,3.8,75.0,0.715
DOM,North America,Dominican Republic,2021-01-13,186383.0,1595.0,1429.286,2428.0,1.0,1.286,17181.476,147.033,131.757,223.822,0.092,0.119,,,,,,,,,,6911.0,904944.0,83.421,0.637,4322.0,0.398,0.209,4.8,samples tested,,,,,,70.37,10847904.0,222.873,27.6,6.981,4.419,14600.861,1.6,266.653,8.2,8.5,19.1,55.182,1.6,74.08,0.736
ECU,South America,Ecuador,2021-01-13,224315.0,1748.0,991.143,14229.0,33.0,11.857,12714.064,99.076,56.177,806.493,1.87,0.672,,,,,,,,,,2961.0,737103.0,41.779,0.168,3043.0,0.172,,,people tested,,,,,,67.59,17643060.0,66.939,28.1,7.104,4.458,10581.936,3.6,140.448,5.55,2.0,12.3,80.635,1.5,77.01,0.752
EGY,Africa,Egypt,2021-01-13,152719.0,996.0,1018.429,8362.0,58.0,55.286,1492.352,9.733,9.952,81.713,0.567,0.54,,,,,,,,,,,,,,,,,,,,,,,,65.74,102334403.0,97.999,25.3,5.159,2.891,10550.206,1.3,525.432,17.31,0.2,50.1,89.827,1.6,71.99,0.696
SLV,North America,El Salvador,2021-01-13,49539.0,0.0,312.0,1447.0,10.0,9.286,7637.599,0.0,48.102,223.089,1.542,1.432,,,,,,,,,,,,,,,,,,,,,,,,47.22,6486201.0,307.811,27.6,8.273,5.417,7292.458,2.2,167.295,8.87,2.5,18.8,90.65,1.3,73.32,0.674
GNQ,Africa,Equatorial Guinea,2021-01-13,5316.0,20.0,4.286,86.0,0.0,0.0,3789.064,14.255,3.055,61.298,0.0,0.0,,,,,,,,,,,,,,,,,,,,,,,,,1402985.0,45.194,22.4,2.846,1.752,22604.873,,202.812,7.78,,,24.64,2.1,58.74,0.591
ERI,Africa,Eritrea,2021-01-13,1596.0,0.0,21.571,6.0,0.0,0.429,450.03,0.0,6.083,1.692,0.0,0.121,,,,,,,,,,,,,,,,,,,,,,,,86.11,3546427.0,44.304,19.3,3.607,2.171,1510.459,,311.11,6.05,0.2,11.4,,0.7,66.32,0.44
EST,Europe,Estonia,2021-01-14,34991.0,853.0,617.714,301.0,9.0,5.714,26377.664,643.027,465.659,226.906,6.785,4.308,,47.0,35.431,431.0,324.906,33.043,24.909,283.367,213.614,6793.0,690967.0,520.88,5.121,5133.0,3.869,0.117,8.6,tests performed,14879.0,1398.0,1178.0,1.12,888.0,55.56,1326539.0,31.033,42.7,19.452,13.491,29481.252,0.5,255.569,4.02,24.5,39.3,,4.69,78.74,0.871
SWZ,Africa,Eswatini,2021-01-13,12124.0,205.0,226.429,332.0,13.0,10.143,10450.247,176.699,195.169,286.166,11.205,8.743,,,,,,,,,,,,,,,,,,,,,,,,59.26,1160164.0,79.492,21.5,3.163,1.845,7738.975,,333.436,3.94,1.7,16.5,24.097,2.1,60.19,0.588
ETH,Africa,Ethiopia,2021-01-13,129455.0,463.0,381.286,2006.0,2.0,5.857,1126.052,4.027,3.317,17.449,0.017,0.051,,,,,,,,,,4949.0,1859648.0,16.176,0.043,4799.0,0.042,0.082,12.2,tests performed,,,,,,51.85,114963583.0,104.957,19.8,3.526,2.063,1729.927,26.7,182.634,7.47,0.4,8.5,7.96,0.3,66.6,0.463
FJI,Oceania,Fiji,2021-01-13,53.0,0.0,0.0,2.0,0.0,0.0,59.122,0.0,0.0,2.231,0.0,0.0,,,,,,,,,,143.0,21925.0,24.458,0.16,104.0,0.116,0.005,182.1,tests performed,,,,,,41.67,896444.0,49.562,28.6,6.224,3.284,8702.975,1.4,412.82,14.49,10.2,34.8,,2.3,67.44,0.741
FIN,Europe,Finland,2021-01-13,39335.0,324.0,255.143,602.0,0.0,3.714,7099.26,58.476,46.049,108.65,0.0,0.67,,27.0,4.873,199.0,35.916,,,,,4326.0,2597129.0,468.735,0.781,9027.0,1.629,0.03,33.8,tests performed,23126.0,5509.0,2332.0,0.42,421.0,52.31,5540718.0,18.136,42.8,21.228,13.264,40585.721,,153.507,5.76,18.3,22.6,,3.28,81.91,0.92
FRA,Europe,France,2021-01-13,2888292.0,23932.0,17882.286,69168.0,229.0,352.714,44249.067,366.642,273.959,1059.664,3.508,5.404,,2665.0,40.828,24780.0,379.633,1085.085,16.624,7086.172,108.561,186188.0,,,2.852,284436.0,4.358,0.065,15.4,people tested,247167.0,57333.0,32810.0,0.38,503.0,63.89,65273512.0,122.578,42.0,19.718,13.079,38605.671,,86.06,4.77,30.1,35.6,,5.98,82.66,0.901
GAB,Africa,Gabon,2021-01-13,9819.0,79.0,25.429,66.0,0.0,0.0,4411.59,35.494,11.425,29.653,0.0,0.0,,,,,,,,,,,,,,,,,,,,,,,,50.0,2225728.0,7.859,23.1,4.45,2.976,16562.413,3.4,259.967,7.2,,,,6.3,66.47,0.702
GMB,Africa,Gambia,2021-01-13,3885.0,9.0,10.429,125.0,0.0,0.0,1607.588,3.724,4.315,51.724,0.0,0.0,,,,,,,,,,,,,,,,,,,,,,,,39.81,2416664.0,207.566,17.5,2.339,1.417,1561.767,10.1,331.43,1.91,0.7,31.2,7.876,1.1,62.05,0.46
GEO,Asia,Georgia,2021-01-13,243255.0,1618.0,1339.429,2846.0,26.0,25.714,60978.774,405.598,335.766,713.431,6.518,6.446,,,,,,,,,,,,,,,,,,,,,,,,84.26,3989175.0,65.032,38.7,14.864,10.244,9745.079,4.2,496.218,7.11,5.3,55.5,,2.6,73.77,0.78
DEU,Europe,Germany,2021-01-13,1993892.0,25566.0,21809.143,44096.0,1207.0,894.429,23798.02,305.142,260.302,526.306,14.406,10.675,,5745.0,68.569,,,,,,,,35118592.0,419.157,,112811.0,1.346,0.161,6.2,tests performed,758093.0,69178.0,54685.0,0.9,653.0,85.19,83783945.0,237.016,46.6,21.453,15.957,45229.245,,156.139,8.31,28.2,33.1,,8.0,81.33,0.936
GHA,Africa,Ghana,2021-01-13,56981.0,560.0,259.0,341.0,3.0,0.857,1833.782,18.022,8.335,10.974,0.097,0.028,,,,,,,,,,2807.0,691902.0,22.267,0.09,2471.0,0.08,0.031,32.6,samples tested,,,,,,38.89,31072945.0,126.719,21.1,3.385,1.948,4227.63,12.0,298.245,4.97,0.3,7.7,41.047,0.9,64.07,0.592
GRC,Europe,Greece,2021-01-13,146688.0,668.0,631.571,5354.0,25.0,36.429,14073.416,64.089,60.594,513.669,2.399,3.495,,,,,,120.513,11.562,,,12556.0,2909699.0,279.16,1.205,9917.0,0.951,0.066,15.2,samples tested,64588.0,8600.0,6303.0,0.62,605.0,84.26,10423056.0,83.479,45.3,20.396,14.524,24574.382,1.5,175.695,4.55,35.3,52.0,,4.21,82.24,0.87
GRD,North America,Grenada,2021-01-13,132.0,0.0,0.714,1.0,0.0,0.0,1173.135,0.0,6.348,8.887,0.0,0.0,,,,,,,,,,,,,,,,,,,,,,,,,112519.0,317.132,29.4,7.304,5.021,13593.877,,243.964,10.71,,,,3.7,72.4,0.772
GTM,North America,Guatemala,2021-01-13,145986.0,1004.0,826.286,5117.0,37.0,31.143,8148.556,56.041,46.121,285.618,2.065,1.738,,,,,,,,,,5960.0,678803.0,37.889,0.333,4469.0,0.249,0.147,6.8,people tested,,,,,,52.31,17915567.0,157.834,22.9,4.694,3.016,7423.808,8.7,155.898,10.18,,,76.665,0.6,74.3,0.65
GIN,Africa,Guinea,2021-01-13,14051.0,26.0,29.429,81.0,0.0,0.0,1069.917,1.98,2.241,6.168,0.0,0.0,,,,,,,,,,,,,,,,,,,,,,,,49.07,13132792.0,51.755,19.0,3.135,1.733,1998.926,35.3,336.717,2.42,,,17.45,0.3,61.6,0.459
GNB,Africa,Guinea-Bissau,2021-01-13,2478.0,0.0,3.286,45.0,0.0,0.0,1259.148,0.0,1.67,22.866,0.0,0.0,,,,,,,,,,,,,,,,,,,,,,,,,1967998.0,66.191,19.4,3.002,1.565,1548.675,67.1,382.474,2.42,,,6.403,,58.32,0.455
GUY,South America,Guyana,2021-01-13,6696.0,43.0,41.286,170.0,0.0,0.571,8513.03,54.668,52.489,216.131,0.0,0.726,,,,,,,,,,,,,,,,,,,,,,,,54.63,786559.0,3.952,26.3,5.305,2.837,7435.047,,373.159,11.62,,,77.159,1.6,69.91,0.654
HTI,North America,Haiti,2021-01-13,10569.0,154.0,63.143,238.0,0.0,0.286,926.899,13.506,5.538,20.873,0.0,0.025,,,,,,,,,,,,,,,,,,,,,,,,28.7,11402533.0,398.448,24.3,4.8,2.954,1653.173,23.5,430.548,6.65,2.9,23.1,22.863,0.7,64.0,0.498
HND,North America,Honduras,2021-01-13,131009.0,1204.0,872.857,3320.0,26.0,18.286,13227.076,121.56,88.126,335.198,2.625,1.846,,,,,,,,,,,,,,,,,,,,,,,,,9904608.0,82.805,24.9,4.652,2.883,4541.795,16.0,240.208,7.21,2.0,,84.169,0.7,75.27,0.617
HKG,Asia,Hong Kong,2021-01-05,,,,,,,,,,,,,,,,,,,,,,,5845073.0,779.656,,,,,,tests performed,,,,,,71.3,7496988.0,7039.714,44.8,16.303,10.158,56054.92,,,8.33,,,,,84.86,0.933
HUN,Europe,Hungary,2021-01-13,345710.0,1358.0,1991.714,10948.0,95.0,107.143,35786.488,140.575,206.174,1133.292,9.834,11.091,,,,5619.0,581.656,,,,,18550.0,2428528.0,251.391,1.92,18391.0,1.904,0.11,9.1,tests performed,96101.0,9172.0,9229.0,0.99,955.0,72.22,9660350.0,108.043,43.4,18.577,11.976,26777.561,0.5,278.296,7.55,26.8,34.8,,7.02,76.88,0.838
ISL,Europe,Iceland,2021-01-13,5935.0,23.0,14.714,29.0,0.0,0.0,17391.941,67.399,43.119,84.982,0.0,0.0,,,,,,,,,,914.0,249286.0,730.508,2.678,698.0,2.045,0.021,48.4,tests performed,,,,,,50.0,341250.0,3.404,37.3,14.431,9.207,46482.958,0.2,117.992,5.31,14.3,15.2,,2.91,82.99,0.935
IND,Asia,India,2021-01-13,10512093.0,16946.0,16687.857,151727.0,198.0,198.714,7617.434,12.28,12.093,109.947,0.143,0.144,,,,,,,,,,836227.0,183489114.0,132.963,0.606,860816.0,0.624,0.02,50.9,samples tested,,,,,,68.98,1380004385.0,450.419,28.2,5.989,3.414,6426.674,21.2,282.28,10.39,1.9,20.6,59.55,0.53,69.66,0.64
IDN,Asia,Indonesia,2021-01-13,858043.0,11278.0,9948.714,24951.0,306.0,236.429,3136.998,41.232,36.372,91.221,1.119,0.864,,,,,,,,,,40548.0,5333160.0,19.498,0.148,32449.0,0.119,0.291,3.4,people tested,,,,,,64.35,273523621.0,145.725,29.3,5.319,3.053,11188.744,5.7,342.864,6.32,2.8,76.1,64.204,1.04,71.72,0.694
,,International,2021-01-13,721.0,0.0,0.0,15.0,0.0,0.0,,,,,,,,,,,,,,,,,,,,,,,,,,,,,,,,,,,,,,,,,,,,,
IRN,Asia,Iran,2021-01-13,1305339.0,6317.0,6205.143,56457.0,97.0,89.571,15541.054,75.209,73.877,672.164,1.155,1.066,,,,,,,,,,54191.0,8262166.0,98.367,0.645,53821.0,0.641,0.115,8.7,tests performed,,,,,,70.83,83992953.0,49.831,32.4,5.44,3.182,19082.62,0.2,270.308,9.59,0.8,21.1,,1.5,76.68,0.798
IRQ,Asia,Iraq,2021-01-13,605416.0,867.0,778.714,12915.0,4.0,7.143,15051.674,21.555,19.36,321.089,0.099,0.178,,,,,,,,,,,4898139.0,121.776,,30994.0,0.771,0.025,40.4,samples tested,,,,,,53.7,40222503.0,88.125,20.0,3.186,1.957,15663.986,2.5,218.612,8.83,,,94.576,1.4,70.6,0.685
IRL,Europe,Ireland,2021-01-13,159144.0,3553.0,5427.143,2460.0,63.0,23.0,32229.764,719.552,1099.102,498.198,12.759,4.658,,65.0,13.164,673.0,136.296,15.103,3.059,382.6,77.484,17765.0,2663724.0,539.456,3.598,24530.0,4.968,0.246,4.1,tests performed,40000.0,,5221.0,0.81,1057.0,85.19,4937796.0,69.874,38.7,13.928,8.678,67335.293,0.2,126.459,3.28,23.0,25.7,,2.96,82.3,0.938
ISR,Asia,Israel,2021-01-14,520060.0,9997.0,8087.429,3817.0,46.0,41.143,60084.055,1154.983,934.364,440.989,5.315,4.753,,,,,,,,,,130293.0,9165118.0,1058.873,15.053,106140.0,12.263,0.063,15.9,tests performed,2047880.0,8992.0,51128.0,23.66,5907.0,76.85,8655541.0,402.606,30.6,11.733,7.359,33132.32,0.5,93.32,6.74,15.4,35.4,,2.99,82.97,0.903
ITA,Europe,Italy,2021-01-13,2319036.0,15773.0,16727.286,80326.0,507.0,492.714,38355.374,260.875,276.659,1328.541,8.385,8.149,,2583.0,42.721,25658.0,424.367,,,3253.504,53.811,141641.0,28124690.0,465.164,2.343,140759.0,2.328,0.123,8.1,tests performed,885814.0,73458.0,78755.0,1.47,1303.0,87.96,60461828.0,205.859,47.9,23.021,16.24,35220.084,2.0,113.151,4.78,19.8,27.8,,3.18,83.51,0.88
JAM,North America,Jamaica,2021-01-13,13852.0,92.0,74.571,317.0,2.0,1.571,4677.895,31.069,25.183,107.053,0.675,0.531,,,,,,,,,,,147628.0,49.855,,923.0,0.312,0.067,14.9,samples tested,,,,,,71.3,2961161.0,266.879,31.4,9.684,6.39,8193.571,,206.537,11.28,5.3,28.6,66.425,1.7,74.47,0.732
JPN,Asia,Japan,2021-01-13,304140.0,5819.0,6374.143,4059.0,97.0,64.286,2404.716,46.009,50.398,32.093,0.767,0.508,,,,,,,,,,86551.0,5098621.0,40.313,0.684,55002.0,0.435,0.116,8.6,people tested,,,,,,55.09,126476458.0,347.778,48.2,27.049,18.493,39002.223,,79.37,5.72,11.2,33.7,,13.05,84.63,0.909
JOR,Asia,Jordan,2021-01-13,310968.0,1122.0,1158.857,4091.0,15.0,19.429,30477.676,109.966,113.578,400.955,1.47,1.904,,,,,,,,,,27279.0,3438946.0,337.048,2.674,25559.0,2.505,0.049,20.2,tests performed,,,,,,81.48,10203140.0,109.285,23.2,3.81,2.361,8337.49,0.1,208.257,11.75,,,,1.4,74.53,0.735
KAZ,Asia,Kazakhstan,2021-01-13,211901.0,925.0,852.571,2881.0,2.0,14.286,11285.312,49.263,45.406,153.435,0.107,0.761,,,,,,,,,,20684.0,5904164.0,314.441,1.102,38347.0,2.042,0.022,45.4,tests performed,,,,,,68.52,18776707.0,6.681,30.6,6.991,4.625,24055.588,0.1,466.792,7.11,7.0,43.1,98.999,6.7,73.6,0.8
KEN,Africa,Kenya,2021-01-13,98555.0,123.0,165.286,1720.0,4.0,3.714,1832.855,2.287,3.074,31.987,0.074,0.069,,,,,,,,,,,1070249.0,19.904,,4081.0,0.076,0.04,24.9,samples tested,,,,,,59.26,53771300.0,87.324,20.0,2.686,1.528,2993.028,36.8,218.637,2.92,1.2,20.4,24.651,1.4,66.7,0.59
OWID_KOS,Europe,Kosovo,2021-01-13,54560.0,299.0,318.143,1388.0,1.0,4.714,28228.857,154.7,164.604,718.139,0.517,2.439,,,,,,,,,,,,,,,,,,,,,,,,71.3,1932774.0,168.155,,,,9795.834,0.6,,,,,,,,
KWT,Asia,Kuwait,2021-01-13,155874.0,539.0,490.857,946.0,0.0,1.143,36499.637,126.213,114.94,221.516,0.0,0.268,,,,,,,,,,10340.0,1347854.0,315.615,2.421,10094.0,2.364,0.047,21.4,tests performed,,,,,,62.96,4270563.0,232.128,33.7,2.345,1.114,65530.537,,132.235,15.84,2.7,37.0,,2.0,75.49,0.803
KGZ,Asia,Kyrgyzstan,2021-01-13,82587.0,0.0,133.0,1375.0,0.0,2.0,12658.581,0.0,20.386,210.754,0.0,0.307,,,,,,,,,,,,,,,,,,,,,,,,41.67,6524191.0,32.333,26.3,4.489,2.882,3393.474,1.4,436.362,7.11,3.6,50.5,89.22,4.5,71.45,0.672
LAO,Asia,Laos,2021-01-13,41.0,0.0,0.0,,,0.0,5.635,0.0,0.0,,,0.0,,,,,,,,,,,,,,,,,,,,,,,,29.63,7275556.0,29.715,24.4,4.029,2.322,6397.36,22.7,368.111,4.0,7.3,51.2,49.839,1.5,67.92,0.601
LVA,Europe,Latvia,2021-01-13,52032.0,1255.0,980.143,909.0,27.0,22.143,27585.593,665.358,519.638,481.921,14.314,11.739,,,,999.0,529.636,109.048,57.813,827.192,438.549,12293.0,994203.0,527.093,6.517,10427.0,5.528,0.092,10.9,tests performed,11417.0,1482.0,971.0,0.61,515.0,57.41,1886202.0,31.212,43.9,19.754,14.136,25063.846,0.7,350.06,4.91,25.6,51.0,,5.57,75.29,0.847
LBN,Asia,Lebanon,2021-01-13,231936.0,4988.0,4573.0,1740.0,35.0,27.143,33981.096,730.795,669.993,254.929,5.128,3.977,,,,,,,,,,,,,,,,,,,,,,,,87.04,6825442.0,594.561,31.1,8.514,5.43,13367.565,,266.591,12.71,26.9,40.7,,2.9,78.93,0.757
LSO,Africa,Lesotho,2021-01-13,6241.0,304.0,300.571,87.0,2.0,2.0,2913.289,141.907,140.306,40.611,0.934,0.934,,,,,,,,,,,,,,,,,,,,,,,,70.37,2142252.0,73.562,22.2,4.506,2.647,2851.153,59.6,405.126,3.94,0.4,53.9,2.117,,54.33,0.52
LBR,Africa,Liberia,2021-01-13,1877.0,1.0,14.0,84.0,0.0,0.143,371.119,0.198,2.768,16.608,0.0,0.028,,,,,,,,,,,,,,,,,,,,,,,,35.19,5057677.0,49.127,19.2,3.057,1.756,752.788,38.6,272.509,2.42,1.5,18.1,1.188,0.8,64.1,0.435
LBY,Africa,Libya,2021-01-13,106670.0,640.0,541.429,1629.0,7.0,11.857,15524.02,93.141,78.796,237.073,1.019,1.726,,,,,,,,,,3662.0,,,0.533,,,,,samples tested,,,,,,78.7,6871287.0,3.623,29.0,4.424,2.816,17881.509,,341.862,10.43,,,,3.7,72.91,0.706
LIE,Europe,Liechtenstein,2021-01-13,2370.0,15.0,10.714,49.0,0.0,0.143,62144.374,393.319,280.942,1284.841,0.0,3.746,,,,,,,,,,,,,,,,,,,,,,,,,38137.0,237.012,,,,,,,7.77,,,,2.397,82.49,0.916
LTU,Europe,Lithuania,2021-01-13,163042.0,1694.0,1546.714,2314.0,42.0,39.714,59891.466,622.27,568.166,850.019,15.428,14.589,,,,2571.0,944.425,128.604,47.241,709.269,260.541,11369.0,1764946.0,648.331,4.176,11012.0,4.045,0.154,6.5,tests performed,31524.0,4223.0,2532.0,1.16,930.0,74.07,2722291.0,45.135,43.5,19.002,13.778,29524.265,0.7,342.989,3.67,21.3,38.0,,6.56,75.93,0.858
LUX,Europe,Luxembourg,2021-01-13,48372.0,191.0,134.571,542.0,4.0,3.571,77274.528,305.124,214.979,865.848,6.39,5.705,,34.0,54.315,125.0,199.688,,,,,10406.0,1758293.0,2808.882,16.624,9182.0,14.668,0.016,61.7,tests performed,2372.0,429.0,114.0,0.38,182.0,83.33,625976.0,231.447,39.7,14.312,9.842,94277.965,0.2,128.275,4.42,20.9,26.0,,4.51,82.25,0.904
MDG,Africa,Madagascar,2021-01-13,18001.0,0.0,33.429,267.0,0.0,0.714,650.066,0.0,1.207,9.642,0.0,0.026,,,,,,,,,,,102830.0,3.713,,230.0,0.008,0.033,30.4,tests performed,,,,,,37.04,27691019.0,43.951,19.6,2.929,1.686,1416.44,77.6,405.994,3.94,,,50.54,0.2,67.04,0.519
MWI,Africa,Malawi,2021-01-13,9400.0,373.0,294.714,254.0,19.0,7.857,491.376,19.498,15.406,13.278,0.993,0.411,,,,,,,,,,,95736.0,5.005,,1141.0,0.06,0.262,3.8,samples tested,,,,,,48.15,19129955.0,197.519,18.1,2.979,1.783,1095.042,71.4,227.349,3.94,4.4,24.7,8.704,1.3,64.26,0.477
MYS,Asia,Malaysia,2021-01-13,144518.0,2985.0,2725.714,563.0,4.0,7.143,4465.118,92.226,84.215,17.395,0.124,0.221,,,,,,,,,,32909.0,3690390.0,114.021,1.017,32537.0,1.005,0.082,12.2,people tested,,,,,,67.13,32365998.0,96.254,29.9,6.293,3.407,26808.164,0.1,260.942,16.74,1.0,42.4,,1.9,76.16,0.802
MDV,Asia,Maldives,2021-01-13,14277.0,59.0,44.286,49.0,0.0,0.143,26412.379,109.15,81.928,90.65,0.0,0.264,,,,,,,,,,2768.0,342559.0,633.732,5.121,2292.0,4.24,0.018,55.7,samples tested,,,,,,,540542.0,1454.433,30.6,4.12,2.875,15183.616,,164.905,9.19,2.1,55.0,95.803,,78.92,0.717
MLI,Africa,Mali,2021-01-13,7738.0,51.0,49.0,303.0,0.0,2.571,382.108,2.518,2.42,14.962,0.0,0.127,,,,,,,,,,,,,,,,,,,,,,,,27.78,20250834.0,15.196,16.4,2.519,1.486,2014.306,,268.024,2.42,1.6,23.0,52.232,0.1,59.31,0.427
MLT,Europe,Malta,2021-01-13,14958.0,189.0,192.286,234.0,0.0,1.0,33876.962,428.048,435.49,529.965,0.0,2.265,,,,,,,,25.943,58.757,2600.0,526766.0,1193.023,5.888,2571.0,5.823,0.045,22.4,tests performed,1400.0,,,0.32,,52.78,441539.0,1454.037,42.4,19.426,11.324,36513.323,0.2,168.711,8.83,20.9,30.2,,4.485,82.53,0.878
MHL,Oceania,Marshall Islands,2021-01-13,4.0,0.0,0.0,,,0.0,67.574,0.0,0.0,,,0.0,,,,,,,,,,,,,,,,,,,,,,,,,59194.0,295.15,,,,3819.202,,557.793,30.53,,,82.502,2.7,73.7,0.708
MRT,Africa,Mauritania,2021-01-13,15794.0,87.0,97.571,395.0,3.0,3.143,3396.808,18.711,20.985,84.952,0.645,0.676,,,,,,,,,,1195.0,165716.0,35.64,0.257,,,,,tests performed,,,,,,58.33,4649660.0,4.289,20.3,3.138,1.792,3597.633,6.0,232.347,2.42,,,15.95,,64.92,0.52
MUS,Africa,Mauritius,2021-01-13,547.0,1.0,1.143,10.0,0.0,0.0,430.11,0.786,0.899,7.863,0.0,0.0,,,,,,,,,,,,,,,,,,,,,,,,19.44,1271767.0,622.962,37.4,10.945,5.884,20292.745,0.5,224.644,22.02,3.2,40.7,,3.4,74.99,0.79
MEX,North America,Mexico,2021-01-13,1571901.0,15873.0,13152.286,136917.0,1235.0,990.0,12191.635,123.111,102.009,1061.926,9.579,7.678,,,,,,,,,,13066.0,3505792.0,27.191,0.101,19330.0,0.15,0.446,2.2,people tested,192567.0,99688.0,19912.0,0.15,154.0,71.76,128932753.0,66.444,29.3,6.857,4.321,17336.469,2.5,152.783,13.06,6.9,21.4,87.847,1.38,75.05,0.774
MDA,Europe,Moldova,2021-01-13,150946.0,808.0,439.286,3193.0,17.0,15.0,37418.786,200.299,108.897,791.529,4.214,3.718,,,,,,,,,,,,,,,,,,,,,,,,57.41,4033963.0,123.655,37.6,10.864,6.955,5189.972,0.2,408.502,5.72,5.9,44.6,86.979,5.8,71.9,0.7
MCO,Europe,Monaco,2021-01-13,1128.0,36.0,21.429,7.0,0.0,0.571,28743.247,917.338,546.034,178.371,0.0,14.561,,,,,,,,,,,,,,,,,,,,,,,,,39244.0,19347.5,,,,,,,5.46,,,,13.8,86.75,
MNG,Asia,Mongolia,2021-01-13,1479.0,10.0,24.429,2.0,0.0,0.143,451.15,3.05,7.452,0.61,0.0,0.044,,,,,,,,,,30065.0,770542.0,235.044,9.171,17316.0,5.282,0.001,819.0,people tested,,,,,,75.46,3278292.0,1.98,28.6,4.031,2.421,11840.846,0.5,460.043,4.82,5.5,46.5,71.18,7.0,69.87,0.741
MNE,Europe,Montenegro,2021-01-13,53840.0,502.0,449.0,737.0,7.0,4.571,85724.021,799.284,714.898,1173.451,11.145,7.279,,,,,,,,,,,,,,,,,,,,,,,,,628062.0,46.28,39.1,14.762,9.395,16409.288,1.0,387.305,10.08,44.0,47.9,,3.861,76.88,0.814
MAR,Africa,Morocco,2021-01-13,455055.0,1266.0,1139.143,7810.0,26.0,27.429,12328.586,34.299,30.862,211.593,0.704,0.743,,,,,,,,,,17544.0,4577298.0,124.011,0.475,14799.0,0.401,0.089,11.2,people tested,,,,,,80.56,36910558.0,80.08,29.6,6.769,4.209,7485.013,1.0,419.146,7.14,0.8,47.1,,1.1,76.68,0.667
MOZ,Africa,Mozambique,2021-01-13,23726.0,730.0,579.857,205.0,4.0,4.714,759.1,23.356,18.552,6.559,0.128,0.151,,,,,,,,,,3191.0,286249.0,9.158,0.102,1649.0,0.053,0.207,4.8,units unclear,,,,,,55.56,31255435.0,37.728,17.7,3.158,1.87,1136.103,62.9,329.942,3.3,5.1,29.1,12.227,0.7,60.85,0.437
MMR,Asia,Myanmar,2021-01-13,132260.0,523.0,583.143,2902.0,24.0,16.714,2430.812,9.612,10.718,53.336,0.441,0.307,,,,,,,,,,19806.0,1980591.0,36.401,0.364,18758.0,0.345,0.034,29.6,samples tested,,,,,,,54409794.0,81.721,29.1,5.732,3.12,5591.597,6.4,202.104,4.61,6.3,35.2,79.287,0.9,67.13,0.578
NAM,Africa,Namibia,2021-01-13,29183.0,312.0,409.143,271.0,7.0,5.143,11485.228,122.79,161.022,106.654,2.755,2.024,,,,,,,,,,2742.0,226059.0,88.968,1.079,2034.0,0.8,0.216,4.6,samples tested,,,,,,38.89,2540916.0,3.078,22.0,3.552,2.085,9541.808,13.4,243.811,3.94,9.7,34.2,44.6,,63.71,0.647
NPL,Asia,Nepal,2021-01-13,266143.0,445.0,421.429,1937.0,5.0,5.429,9134.254,15.273,14.464,66.479,0.172,0.186,,,,,,,,,,4286.0,1978847.0,67.916,0.147,5106.0,0.175,0.086,11.6,tests performed,,,,,,60.19,29136808.0,204.43,25.0,5.809,3.212,2442.804,15.0,260.797,7.26,9.5,37.8,47.782,0.3,70.78,0.574
NLD,Europe,Netherlands,2021-01-13,901740.0,6197.0,6954.286,12786.0,122.0,98.571,52626.01,361.66,405.856,746.198,7.12,5.753,,704.0,41.086,2006.0,117.071,318.264,18.574,1694.435,98.888,,5323887.0,310.705,,24959.0,1.457,0.136,7.4,people tested,47000.0,2000.0,5857.0,0.27,342.0,84.26,17134873.0,508.544,43.2,18.779,11.881,48472.545,,109.361,5.29,24.4,27.3,,3.32,82.28,0.931
NZL,Oceania,New Zealand,2021-01-13,2228.0,0.0,5.714,25.0,0.0,0.0,462.027,0.0,1.185,5.184,0.0,0.0,,,,,,,,,,2717.0,1448199.0,300.317,0.563,3589.0,0.744,0.002,602.8,tests performed,,,,,,22.22,4822233.0,18.206,37.9,15.322,9.72,36085.843,,128.797,8.08,14.8,17.2,,2.61,82.29,0.917
NIC,North America,Nicaragua,2021-01-13,6152.0,0.0,7.857,167.0,0.0,0.143,928.666,0.0,1.186,25.209,0.0,0.022,,,,,,,,,,,,,,,,,,,,,,,,8.33,6624554.0,51.667,27.3,5.445,3.519,5321.444,3.2,137.016,11.47,,,,0.9,74.48,0.658
NER,Africa,Niger,2021-01-13,3998.0,29.0,52.0,136.0,1.0,3.286,165.161,1.198,2.148,5.618,0.041,0.136,,,,,,,,,,,,,,,,,,,,,,,,31.48,24206636.0,16.955,15.1,2.553,1.378,926.0,44.5,238.339,2.42,0.1,15.4,8.978,0.3,62.42,0.354
NGA,Africa,Nigeria,2021-01-13,103999.0,1398.0,1375.714,1382.0,9.0,8.286,504.508,6.782,6.674,6.704,0.044,0.04,,,,,,,,,,8298.0,1033858.0,5.015,0.04,10707.0,0.052,0.133,7.5,samples tested,,,,,,58.33,206139587.0,209.588,18.1,2.751,1.447,5338.454,,181.013,2.42,0.6,10.8,41.949,,54.69,0.532
MKD,Europe,North Macedonia,2021-01-13,87590.0,473.0,323.143,2657.0,10.0,12.286,42042.258,227.035,155.105,1275.331,4.8,5.897,,,,,,,,,,3023.0,420812.0,201.985,1.451,1945.0,0.934,0.181,5.5,tests performed,,,,,,,2083380.0,82.6,39.1,13.26,8.16,13111.214,5.0,322.688,10.08,,,,4.28,75.8,0.757
NOR,Europe,Norway,2021-01-13,57282.0,667.0,616.429,509.0,27.0,6.286,10566.213,123.035,113.706,93.89,4.98,1.159,,,,128.0,23.611,10.175,1.877,95.641,17.642,27920.0,3071358.0,566.541,5.15,25119.0,4.633,0.026,37.7,people tested,25249.0,3317.0,2825.0,0.47,521.0,64.81,5421242.0,14.462,39.7,16.821,10.813,64800.057,0.2,114.316,5.31,19.6,20.7,,3.6,82.4,0.953
OMN,Asia,Oman,2021-01-13,131086.0,142.0,171.143,1508.0,0.0,0.571,25669.807,27.807,33.514,295.303,0.0,0.112,,,,,,,,,,,,,,,,,,,22749.0,2100.0,1249.0,0.45,245.0,37.04,5106622.0,14.98,30.7,2.355,1.53,37960.709,,266.342,12.61,0.5,15.6,97.4,1.6,77.86,0.821
PAK,Asia,Pakistan,2021-01-13,511921.0,3097.0,2406.571,10818.0,46.0,43.857,2317.514,14.02,10.895,48.974,0.208,0.199,,,,,,,,,,39450.0,7202076.0,32.604,0.179,39746.0,0.18,0.058,17.1,tests performed,,,,,,64.35,220892331.0,255.573,23.5,4.495,2.78,5034.708,4.0,423.031,8.35,2.8,36.7,59.607,0.6,67.27,0.562
PSE,Asia,Palestine,2021-01-13,149769.0,801.0,787.429,1658.0,28.0,19.857,29358.319,157.015,154.355,325.008,5.489,3.892,,,,,,,,,,2913.0,,,0.571,4403.0,0.863,0.208,4.8,tests performed,,,,,,62.5,5101416.0,778.202,20.4,3.043,1.726,4449.898,1.0,265.91,10.59,,,,,74.05,0.686
PAN,North America,Panama,2021-01-13,288408.0,3315.0,3350.286,4594.0,33.0,44.429,66842.064,768.292,776.469,1064.715,7.648,10.297,,,,,,,,,,16170.0,1403899.0,325.371,3.748,12874.0,2.984,0.259,3.9,tests performed,,,,,,65.74,4314768.0,55.133,29.7,7.918,5.03,22267.037,2.2,128.346,8.33,2.4,9.9,,2.3,78.51,0.789
PNG,Oceania,Papua New Guinea,2021-01-13,833.0,10.0,4.857,9.0,0.0,0.0,93.104,1.118,0.543,1.006,0.0,0.0,,,,,,,,,,,,,,,,,,,,,,,,64.35,8947027.0,18.22,22.6,3.808,2.142,3823.194,,561.494,17.65,23.5,48.8,,,64.5,0.544
PRY,South America,Paraguay,2021-01-13,118592.0,1002.0,985.429,2451.0,14.0,16.286,16626.919,140.483,138.16,343.637,1.963,2.283,,,,,,,,,,3003.0,577229.0,80.929,0.421,2406.0,0.337,0.292,3.4,tests performed,,,,,,52.78,7132530.0,17.144,26.5,6.378,3.833,8827.01,1.7,199.128,8.27,5.0,21.6,79.602,1.3,74.25,0.702
PER,South America,Peru,2021-01-13,1040231.0,2881.0,2601.857,38399.0,64.0,67.714,31549.068,87.378,78.911,1164.6,1.941,2.054,,,,,,,,,,229.0,1974644.0,59.889,0.007,9334.0,0.283,0.175,5.7,tests performed,,,,,,61.11,32971846.0,25.129,29.1,7.151,4.455,12236.706,3.5,85.755,5.95,4.8,,,1.6,76.74,0.75
PHL,Asia,Philippines,2021-01-13,492700.0,1442.0,1709.0,9699.0,145.0,50.286,4496.214,13.159,15.596,88.51,1.323,0.459,,,,,,,,,,31882.0,6723926.0,61.36,0.291,31737.0,0.29,0.052,19.2,people tested,,,,,,55.09,109581085.0,351.873,25.2,4.803,2.661,7599.188,,370.437,7.07,7.8,40.8,78.463,1.0,71.23,0.699
POL,Europe,Poland,2021-01-13,1404905.0,9126.0,8591.714,32074.0,481.0,288.429,37121.031,241.131,227.014,847.474,12.709,7.621,,,,16786.0,443.527,,,,,58371.0,7336413.0,193.846,1.542,45798.0,1.21,0.198,5.0,people tested,369212.0,59592.0,29836.0,0.98,788.0,71.3,37846605.0,124.027,41.8,16.763,10.202,27216.445,,227.331,5.91,23.3,33.1,,6.62,78.73,0.865
PRT,Europe,Portugal,2021-01-13,507108.0,10556.0,8643.143,8236.0,156.0,122.714,49732.526,1035.236,847.641,807.712,15.299,12.035,,500.0,49.035,3044.0,298.528,,,267.901,26.273,23440.0,6077195.0,595.996,2.299,46853.0,4.595,0.172,5.8,tests performed,70000.0,,5796.0,0.69,568.0,67.59,10196707.0,112.371,46.2,21.502,14.924,27936.896,0.5,127.842,9.85,16.3,30.0,,3.39,82.05,0.847
QAT,Asia,Qatar,2021-01-13,146480.0,201.0,202.714,246.0,0.0,0.143,50842.398,69.766,70.361,85.385,0.0,0.05,,,,,,,,,,4726.0,1296060.0,449.855,1.64,4872.0,1.691,0.042,23.9,people tested,,,,,,56.48,2881060.0,227.322,31.9,1.307,0.617,116935.6,,176.69,16.52,0.8,26.9,,1.2,80.23,0.856
ROU,Europe,Romania,2021-01-13,681392.0,4424.0,3912.143,16969.0,88.0,95.714,35419.652,229.965,203.358,882.071,4.574,4.975,,1119.0,58.167,,,,,5310.204,276.031,28592.0,5077520.0,263.936,1.486,24971.0,1.298,0.159,6.3,tests performed,154268.0,13821.0,13673.0,0.8,711.0,76.85,19237682.0,85.129,43.0,17.85,11.69,23313.199,5.7,370.946,9.74,22.9,37.1,,6.892,76.05,0.811
RUS,Europe,Russia,2021-01-13,3434934.0,22544.0,22902.714,62463.0,555.0,475.143,23537.511,154.48,156.938,428.021,3.803,3.256,,,,,,,,,,341381.0,94631354.0,648.451,2.339,327563.0,2.245,0.071,14.2,tests performed,800000.0,,68000.0,0.55,466.0,50.46,145934460.0,8.823,39.6,14.178,9.393,24765.954,0.1,431.297,6.18,23.4,58.3,,8.05,72.58,0.816
RWA,Africa,Rwanda,2021-01-13,10122.0,172.0,152.0,128.0,3.0,2.286,781.488,13.28,11.735,9.882,0.232,0.176,,,,,,,,,,1937.0,771275.0,59.548,0.15,3718.0,0.287,0.035,28.4,samples tested,,,,,,61.11,12952209.0,494.869,20.3,2.974,1.642,1854.211,56.0,191.375,4.28,4.7,21.0,4.617,,69.02,0.524
KNA,North America,Saint Kitts and Nevis,2021-01-13,34.0,0.0,0.143,,,0.0,639.194,0.0,2.686,,,0.0,,,,,,,,,,,,,,,,,,,,,,,,,53192.0,212.865,,,,24654.385,,,12.84,,,,2.3,76.23,0.778
LCA,North America,Saint Lucia,2021-01-13,502.0,12.0,17.143,6.0,1.0,0.143,2733.773,65.349,93.356,32.675,5.446,0.778,,,,,,,,,,,,,,,,,,,,,,,,,183629.0,293.187,34.9,9.721,6.405,12951.839,,204.62,11.62,,,87.202,1.3,76.2,0.747
VCT,North America,Saint Vincent and the Grenadines,2021-01-13,284.0,0.0,19.286,,,0.0,2559.781,0.0,173.828,,,0.0,,,,,,,,,,,,,,,,,,,,,,,,,110947.0,281.787,31.8,7.724,4.832,10727.146,,252.675,11.62,,,,2.6,72.53,0.723
WSM,Oceania,Samoa,2021-01-13,2.0,0.0,0.0,,,0.0,10.08,0.0,0.0,,,0.0,,,,,,,,,,,,,,,,,,,,,,,,,198410.0,69.413,22.0,5.606,3.564,6021.557,,348.977,9.21,16.7,38.1,,,73.32,0.713
SMR,Europe,San Marino,2021-01-13,2723.0,17.0,24.857,65.0,0.0,0.429,80234.545,500.913,732.428,1915.257,0.0,12.628,,,,,,,,,,,,,,,,,,,,,,,,61.11,33938.0,556.667,,,,56861.47,,,5.64,,,,3.8,84.97,
STP,Africa,Sao Tome and Principe,2021-01-13,1105.0,15.0,11.429,17.0,0.0,0.0,5041.955,68.443,52.147,77.569,0.0,0.0,,,,,,,,,,,,,,,,,,,,,,,,,219161.0,212.841,18.7,2.886,2.162,3052.714,32.3,270.113,2.42,,,41.34,2.9,70.39,0.589
SAU,Asia,Saudi Arabia,2021-01-13,364271.0,175.0,127.714,6304.0,4.0,4.571,10463.388,5.027,3.668,181.077,0.115,0.131,,,,,,,,,,48910.0,11486075.0,329.928,1.405,38853.0,1.116,0.003,324.9,tests performed,178337.0,,15667.0,0.51,450.0,52.78,34813867.0,15.322,31.9,3.295,1.845,49045.411,,259.538,17.72,1.8,25.4,,2.7,75.13,0.853
SEN,Africa,Senegal,2021-01-13,21883.0,198.0,246.714,489.0,9.0,8.0,1306.921,11.825,14.735,29.205,0.538,0.478,,,,,,,,,,1062.0,298408.0,17.822,0.063,1844.0,0.11,0.133,7.5,tests performed,,,,,,58.8,16743930.0,82.328,18.7,3.008,1.796,2470.58,38.0,241.219,2.42,0.4,16.6,20.859,,67.94,0.505
SRB,Europe,Serbia,2021-01-13,366191.0,2267.0,2010.143,3664.0,25.0,31.429,53815.245,333.157,295.41,538.46,3.674,4.619,,,,,,,,,,11122.0,2410824.0,354.293,1.634,11313.0,1.663,0.192,5.2,people tested,9300.0,,,0.14,,60.19,6804596.0,80.291,41.2,17.366,,14048.881,,439.415,10.08,37.7,40.2,97.719,5.609,76.0,0.787
SYC,Africa,Seychelles,2021-01-13,612.0,11.0,34.143,1.0,0.0,0.0,6223.307,111.857,347.192,10.169,0.0,0.0,,,,,,,,,,,,,,,,,,,,,,,,54.63,98340.0,208.354,36.2,8.606,5.586,26382.287,1.1,242.648,10.55,7.1,35.7,,3.6,73.4,0.797
SLE,Africa,Sierra Leone,2021-01-13,2887.0,23.0,21.143,77.0,0.0,0.143,361.916,2.883,2.65,9.653,0.0,0.018,,,,,,,,,,,,,,,,,,,,,,,,37.04,7976985.0,104.7,19.1,2.538,1.285,1390.3,52.2,325.721,2.42,8.8,41.3,19.275,,54.7,0.419
SGP,Asia,Singapore,2021-01-13,58984.0,38.0,29.143,29.0,0.0,0.0,10082.144,6.495,4.981,4.957,0.0,0.0,,,,,,,,,,,5837181.0,997.75,,31327.0,5.355,0.001,1054.3,samples tested,6200.0,2800.0,2800.0,0.11,479.0,56.48,5850343.0,7915.731,42.4,12.922,7.049,85535.383,,92.243,10.99,5.2,28.3,,2.4,83.62,0.932
SVK,Europe,Slovakia,2021-01-13,215055.0,3576.0,2715.429,3163.0,61.0,72.286,39389.938,654.988,497.364,579.342,11.173,13.24,,,,2771.0,507.542,,,,,15440.0,1568070.0,287.211,2.828,11430.0,2.094,0.255,3.9,tests performed,39395.0,7610.0,4346.0,0.72,796.0,54.63,5459643.0,113.128,41.2,15.07,9.167,30155.152,0.7,287.959,7.29,23.1,37.7,,5.82,77.54,0.855
SVN,Europe,Slovenia,2021-01-13,143679.0,2092.0,1707.857,3070.0,17.0,24.429,69111.929,1006.286,821.507,1476.72,8.177,11.751,,190.0,91.393,1173.0,564.232,112.893,54.303,747.29,359.458,6193.0,729800.0,351.046,2.979,4660.0,2.242,0.282,3.5,tests performed,29561.0,5099.0,2471.0,1.42,1189.0,68.52,2078932.0,102.619,44.5,19.062,12.93,31400.84,,153.493,7.25,20.1,25.0,,4.5,81.32,0.896
SLB,Oceania,Solomon Islands,2021-01-13,17.0,0.0,0.0,,,0.0,24.75,0.0,0.0,,,0.0,,,,,,,,,,,,,,,,,,,,,,,,33.33,686878.0,21.841,20.8,3.507,2.043,2205.923,25.1,459.78,18.68,,,35.89,1.4,73.0,0.546
SOM,Africa,Somalia,2021-01-13,4726.0,0.0,0.0,130.0,0.0,0.0,297.36,0.0,0.0,8.18,0.0,0.0,,,,,,,,,,,,,,,,,,,,,,,,21.3,15893219.0,23.5,16.8,2.731,1.496,,,365.769,6.05,,,9.831,0.9,57.4,
ZAF,Africa,South Africa,2021-01-13,1278303.0,18555.0,18387.429,35140.0,806.0,538.857,21553.385,312.855,310.029,592.493,13.59,9.086,,,,,,,,,,50671.0,7287060.0,122.867,0.854,65559.0,1.105,0.288,3.5,people tested,,,,,,63.89,59308690.0,46.754,27.3,5.344,3.053,12294.876,18.9,200.38,5.52,8.1,33.2,43.993,2.32,64.13,0.699
KOR,Asia,South Korea,2021-01-13,70728.0,516.0,577.429,1195.0,10.0,21.286,1379.542,10.065,11.263,23.308,0.195,0.415,,,,,,,,,,62083.0,4689398.0,91.466,1.211,53802.0,1.049,0.012,86.9,people tested,,,,,,62.04,51269183.0,527.967,43.4,13.914,8.622,35938.374,0.2,85.998,6.8,6.2,40.9,,12.27,83.03,0.903
SSD,Africa,South Sudan,2021-01-13,3670.0,0.0,11.571,63.0,0.0,0.0,327.862,0.0,1.034,5.628,0.0,0.0,,,,,,,,,,201.0,80036.0,7.15,0.018,356.0,0.032,0.029,34.1,tests performed,,,,,,48.15,11193729.0,,19.2,3.441,2.032,1569.888,,280.775,10.43,,,,,57.85,0.388
ESP,Europe,Spain,2021-01-13,2176089.0,38869.0,27649.286,52878.0,195.0,206.857,46542.597,831.337,591.368,1130.965,4.171,4.424,,2018.0,43.161,11535.0,246.713,47.814,1.023,1264.072,27.036,,22660315.0,484.663,,110140.0,2.356,0.095,10.5,tests performed,581638.0,93516.0,58330.0,1.24,1248.0,71.3,46754783.0,93.105,45.5,19.436,13.799,34272.36,1.0,99.403,7.17,27.4,31.4,,2.97,83.56,0.891
LKA,Asia,Sri Lanka,2021-01-13,50229.0,692.0,568.714,247.0,3.0,4.0,2345.697,32.316,26.559,11.535,0.14,0.187,,,,,,,,,,14329.0,1416299.0,66.141,0.669,14930.0,0.697,0.036,27.4,tests performed,,,,,,78.24,21413250.0,341.955,34.1,10.069,5.331,11669.077,0.7,197.093,10.68,0.3,27.0,,3.6,76.98,0.77
SDN,Africa,Sudan,2021-01-13,25730.0,2414.0,344.857,1576.0,108.0,15.429,586.783,55.052,7.865,35.941,2.463,0.352,,,,,,,,,,,,,,,,,,,,,,,,23.15,43849269.0,23.258,19.7,3.548,2.034,4466.507,,431.388,15.67,,,23.437,0.8,65.31,0.502
SUR,South America,Suriname,2021-01-13,7247.0,69.0,83.0,139.0,1.0,1.857,12353.529,117.62,141.485,236.945,1.705,3.166,,,,,,,,,,,,,,,,,,,,,,,,67.59,586634.0,3.612,29.6,6.933,4.229,13767.119,,258.314,12.54,7.4,42.9,67.779,3.1,71.68,0.72
SWE,Europe,Sweden,2021-01-13,512203.0,5337.0,6065.0,9834.0,167.0,121.286,50716.834,528.454,600.538,973.734,16.536,12.009,,359.0,35.547,,,205.338,20.332,,,29552.0,,,2.926,29552.0,2.926,0.2,5.0,tests performed,79466.0,,6905.0,0.79,684.0,71.3,10099270.0,24.718,41.0,19.985,13.433,46949.283,0.5,133.982,4.79,18.8,18.9,,2.22,82.8,0.933
CHE,Europe,Switzerland,2021-01-13,490358.0,3001.0,2795.571,8521.0,51.0,58.857,56658.538,346.751,323.015,984.561,5.893,6.801,,,,,,,,,,14884.0,3505901.0,405.09,1.72,15919.0,1.839,0.14,7.1,tests performed,,,,,,60.19,8654618.0,214.243,43.1,18.436,12.644,57410.166,,99.739,5.59,22.6,28.9,,4.53,83.78,0.944
SYR,Asia,Syria,2021-01-13,12660.0,102.0,96.0,799.0,9.0,7.429,723.401,5.828,5.486,45.655,0.514,0.424,,,,,,,,,,,,,,,,,,,,,,,,54.17,17500657.0,,21.7,,2.577,,,376.264,,,,70.598,1.5,72.7,0.536
TWN,Asia,Taiwan,2021-01-13,842.0,4.0,3.286,7.0,0.0,0.0,35.353,0.168,0.138,0.294,0.0,0.0,,,,,,,,,,614.0,133617.0,5.61,0.026,605.0,0.025,0.005,201.7,people tested,,,,,,19.44,23816775.0,,42.2,,8.353,,,103.957,,,,,,80.46,
TJK,Asia,Tajikistan,2021-01-13,13308.0,0.0,0.429,90.0,0.0,0.0,1395.313,0.0,0.045,9.436,0.0,0.0,,,,,,,,,,,,,,,,,,,,,,,,42.59,9537642.0,64.281,23.3,3.466,2.155,2896.913,4.8,427.698,7.11,,,72.704,4.8,71.1,0.65
TZA,Africa,Tanzania,2021-01-13,509.0,0.0,0.0,21.0,0.0,0.0,8.521,0.0,0.0,0.352,0.0,0.0,,,,,,,,,,,,,,,,,,,,,,,,6.48,59734213.0,64.699,17.7,3.108,1.874,2683.304,49.1,217.288,5.75,3.3,26.7,47.953,0.7,65.46,0.538
THA,Asia,Thailand,2021-01-13,10991.0,0.0,193.571,67.0,0.0,0.0,157.464,0.0,2.773,0.96,0.0,0.0,,,,,,,,,,7229.0,1625271.0,23.285,0.104,14759.0,0.211,0.013,76.0,tests performed,,,,,,63.89,69799978.0,135.132,40.1,11.373,6.89,16277.671,0.1,109.861,7.04,1.9,38.8,90.67,2.1,77.15,0.755
TLS,Asia,Timor,2021-01-13,51.0,2.0,0.286,,,0.0,38.682,1.517,0.217,,,0.0,,,,,,,,,,,,,,,,,,,,,,,,60.19,1318442.0,87.176,18.0,3.556,1.897,6570.102,30.3,335.346,6.86,6.3,78.1,28.178,5.9,69.5,0.625
TGO,Africa,Togo,2021-01-13,4109.0,64.0,43.143,73.0,0.0,0.429,496.332,7.731,5.211,8.818,0.0,0.052,,,,,,,,,,1040.0,186572.0,22.536,0.126,857.0,0.104,0.039,25.9,tests performed,,,,,,68.52,8278737.0,143.366,19.4,2.839,1.525,1429.813,49.2,280.033,6.15,0.9,14.2,10.475,0.7,61.04,0.503
TTO,North America,Trinidad and Tobago,2021-01-13,7305.0,19.0,15.571,129.0,1.0,0.286,5219.755,13.576,11.126,92.176,0.715,0.204,,,,,,,,,,70.0,74775.0,53.43,0.05,320.0,0.229,0.027,36.7,people tested,,,,,,68.52,1399491.0,266.886,36.2,10.014,5.819,28763.071,,228.467,10.97,,,89.443,3.0,73.51,0.784
TUN,Africa,Tunisia,2021-01-13,168568.0,3632.0,2669.571,5415.0,72.0,58.714,14262.92,307.312,225.878,458.175,6.092,4.968,,,,,,,,,,,,,,,,,,,,,,,,71.3,11818618.0,74.228,32.7,8.001,5.075,10849.297,2.0,318.991,8.52,1.1,65.8,78.687,2.3,76.7,0.735
TUR,Asia,Turkey,2021-01-14,2355839.0,9554.0,10272.571,23325.0,173.0,179.286,27932.951,113.281,121.801,276.562,2.051,2.126,,,,,,,,,,179208.0,26555992.0,314.872,2.125,177204.0,2.101,0.061,16.3,tests performed,157451.0,,,0.19,,65.28,84339067.0,104.914,31.6,8.153,5.061,25129.341,0.2,171.285,12.13,14.1,41.1,,2.81,77.69,0.791
UGA,Africa,Uganda,2021-01-13,38085.0,137.0,197.571,304.0,1.0,1.429,832.623,2.995,4.319,6.646,0.022,0.031,,,,,,,,,,4456.0,780397.0,17.061,0.097,3828.0,0.084,0.067,15.0,samples tested,,,,,,47.22,45741000.0,213.759,16.4,2.168,1.308,1697.707,41.6,213.333,2.5,3.4,16.7,21.222,0.5,63.37,0.516
UKR,Europe,Ukraine,2021-01-13,1166958.0,6715.0,6068.0,21121.0,206.0,135.714,26683.231,153.543,138.749,482.945,4.71,3.103,,,,,,,,,,23873.0,5805824.0,132.754,0.546,22949.0,0.525,0.268,3.7,tests performed,,,,,,75.0,43733759.0,77.39,41.4,16.462,11.133,7894.393,0.1,539.849,7.11,13.5,47.4,,8.8,72.06,0.751
ARE,Asia,United Arab Emirates,2021-01-13,239587.0,3362.0,2974.429,723.0,6.0,4.857,24224.197,339.926,300.739,73.101,0.607,0.491,,,,,,,,,,134768.0,22830171.0,2308.316,13.626,155709.0,15.743,0.018,56.9,tests performed,1394580.0,118928.0,76797.0,14.1,7765.0,49.07,9890400.0,112.442,34.0,1.144,0.526,67293.483,,317.84,17.26,1.2,37.4,,1.2,77.97,0.863
GBR,Europe,United Kingdom,2021-01-13,3220953.0,47662.0,53669.714,84910.0,1568.0,1062.857,47446.496,702.089,790.586,1250.773,23.098,15.656,,2821.0,41.555,30370.0,447.368,,,22608.0,333.029,536947.0,58297536.0,858.756,7.91,570691.0,8.407,0.102,9.8,tests performed,3067541.0,223726.0,194451.0,4.52,2864.0,75.0,67886004.0,272.898,40.8,18.517,12.527,39753.244,0.2,122.137,4.28,20.0,24.7,,2.54,81.32,0.922
USA,North America,United States,2021-01-13,23071895.0,232943.0,245306.429,384653.0,3848.0,3360.429,69703.053,703.75,741.101,1162.084,11.625,10.152,,23821.0,71.966,132370.0,399.906,1269.0,3.834,28673.0,86.625,875195.0,261477833.0,789.957,2.644,1301186.0,3.931,0.15,6.7,tests performed,10278462.0,951324.0,710238.0,3.11,2146.0,71.76,331002647.0,35.608,38.3,15.413,9.732,54225.446,1.2,151.089,10.79,19.1,24.6,,2.77,78.86,0.924
URY,South America,Uruguay,2021-01-13,28475.0,629.0,775.286,275.0,6.0,7.714,8197.248,181.074,223.186,79.166,1.727,2.221,,,,,,,,,,7826.0,714493.0,205.685,2.253,6768.0,1.948,0.121,8.3,tests performed,,,,,,70.37,3473727.0,19.751,35.6,14.655,10.361,20551.409,0.1,160.708,6.93,14.0,19.9,,2.8,77.91,0.804
UZB,Asia,Uzbekistan,2021-01-13,77716.0,53.0,52.286,618.0,1.0,0.429,2322.016,1.584,1.562,18.465,0.03,0.013,,,,,,,,,,,,,,,,,,,,,,,,42.59,33469199.0,76.134,28.2,4.469,2.873,6253.104,,724.417,7.57,1.3,24.7,,4.0,71.72,0.71
VUT,Oceania,Vanuatu,2021-01-13,1.0,0.0,0.0,,,0.0,3.256,0.0,0.0,,,0.0,,,,,,,,,,,,,,,,,,,,,,,,22.22,307150.0,22.662,23.1,4.394,2.62,2921.909,13.2,546.3,12.02,2.8,34.5,25.209,,70.47,0.603
VAT,Europe,Vatican,2021-01-13,27.0,0.0,0.0,,,0.0,33374.536,0.0,0.0,,,0.0,,,,,,,,,,,,,,,,,,,,,,,,,809.0,,,,,,,,,,,,,75.12,
VEN,South America,Venezuela,2021-01-13,117811.0,512.0,414.714,1084.0,6.0,5.286,4143.031,18.005,14.584,38.121,0.211,0.186,,,,,,,,,,,,,,,,,,,,,,,,90.74,28435943.0,36.253,29.0,6.614,3.915,16745.022,,204.85,6.47,,,,0.8,72.06,0.761
VNM,Asia,Vietnam,2021-01-13,1521.0,1.0,2.286,35.0,0.0,0.0,15.626,0.01,0.023,0.36,0.0,0.0,,,,,,,,,,,,,,,,,,,,,,,,56.48,97338583.0,308.127,32.6,7.15,4.718,6171.884,2.0,245.465,6.0,1.0,45.9,85.847,2.6,75.4,0.694
OWID_WRL,,World,2021-01-13,92348199.0,752974.0,729428.0,1978614.0,16260.0,13548.857,11847.413,96.6,93.579,253.838,2.086,1.738,,,,,,,,,,,,,,,,,,,32642651.0,,,0.42,,,7794798729.0,58.045,30.9,8.696,5.355,15469.207,10.0,233.07,8.51,6.434,34.635,60.13,2.705,72.58,
YEM,Asia,Yemen,2021-01-13,2109.0,2.0,1.0,612.0,0.0,0.286,70.71,0.067,0.034,20.519,0.0,0.01,,,,,,,,,,,,,,,,,,,,,,,,,29825968.0,53.508,20.3,2.922,1.583,1479.147,18.8,495.003,5.35,7.6,29.2,49.542,0.7,66.12,0.452
ZMB,Africa,Zambia,2021-01-13,31100.0,1343.0,1086.429,509.0,14.0,13.143,1691.692,73.053,59.097,27.687,0.762,0.715,,,,,,,,,,11302.0,730150.0,39.717,0.615,11370.0,0.618,0.09,11.1,tests performed,,,,,,49.07,18383956.0,22.995,17.7,2.48,1.542,3689.251,57.5,234.499,3.94,3.1,24.7,13.938,2.0,63.89,0.588
ZWE,Africa,Zimbabwe,2021-01-13,24256.0,1017.0,921.714,589.0,38.0,22.571,1631.98,68.425,62.014,39.629,2.557,1.519,,,,,,,,,,2746.0,243102.0,16.356,0.185,3310.0,0.223,0.241,4.2,tests performed,,,,,,92.59,14862927.0,42.729,19.6,2.822,1.882,1899.775,21.4,307.846,1.82,1.6,30.7,36.791,1.7,61.49,0.535
